\BOOKMARK [1][-]{section.1}{Vor\374berlegungen}{}% 1
\BOOKMARK [2][-]{subsection.1.1}{Liegen die Planeten in einem euklidischen Raum?}{section.1}% 2
\BOOKMARK [2][-]{subsection.1.2}{Sind alle Reisekosten nicht-negativ?}{section.1}% 3
\BOOKMARK [2][-]{subsection.1.3}{Ist der Graph vollst\344ndig zusammenh\344ngend?}{section.1}% 4
\BOOKMARK [1][-]{section.2}{Methodik}{}% 5
\BOOKMARK [1][-]{section.3}{Laufzeit}{}% 6
\BOOKMARK [1][-]{section.4}{Bedienungsanleitung}{}% 7
