\relax 
\providecommand\hyper@newdestlabel[2]{}
\providecommand*\new@tpo@label[2]{}
\providecommand\HyperFirstAtBeginDocument{\AtBeginDocument}
\HyperFirstAtBeginDocument{\ifx\hyper@anchor\@undefined
\global\let\oldcontentsline\contentsline
\gdef\contentsline#1#2#3#4{\oldcontentsline{#1}{#2}{#3}}
\global\let\oldnewlabel\newlabel
\gdef\newlabel#1#2{\newlabelxx{#1}#2}
\gdef\newlabelxx#1#2#3#4#5#6{\oldnewlabel{#1}{{#2}{#3}}}
\AtEndDocument{\ifx\hyper@anchor\@undefined
\let\contentsline\oldcontentsline
\let\newlabel\oldnewlabel
\fi}
\fi}
\global\let\hyper@last\relax 
\gdef\HyperFirstAtBeginDocument#1{#1}
\providecommand\HyField@AuxAddToFields[1]{}
\providecommand\HyField@AuxAddToCoFields[2]{}
\catcode `"\active 
\babel@aux{german}{}
\@writefile{toc}{\contentsline {section}{\numberline {1}Vor\IeC {\"u}berlegungen}{1}{section.1}}
\@writefile{toc}{\contentsline {subsection}{\numberline {1.1}Liegen die Planeten in einem euklidischen Raum?}{1}{subsection.1.1}}
\@writefile{toc}{\contentsline {subsection}{\numberline {1.2}Sind alle Reisekosten nicht-negativ?}{1}{subsection.1.2}}
\@writefile{toc}{\contentsline {subsection}{\numberline {1.3}Ist der Graph vollst\IeC {\"a}ndig zusammenh\IeC {\"a}ngend?}{1}{subsection.1.3}}
\@writefile{lof}{\contentsline {figure}{\numberline {1}{\ignorespaces Wegdistanzen}}{2}{figure.1}}
\newlabel{img:distances}{{1}{2}{Wegdistanzen}{figure.1}{}}
\@writefile{toc}{\contentsline {section}{\numberline {2}Methodik}{2}{section.2}}
\@writefile{toc}{\contentsline {section}{\numberline {3}Laufzeit}{2}{section.3}}
\@writefile{lof}{\contentsline {figure}{\numberline {2}{\ignorespaces Programmausf\IeC {\"u}hrung}}{3}{figure.2}}
\newlabel{img:screenshot}{{2}{3}{Programmausführung}{figure.2}{}}
\@writefile{toc}{\contentsline {section}{\numberline {4}Bedienungsanleitung}{3}{section.4}}
